%YAML 1.1
%TAG !u! tag:unity3d.com,2011:
--- !u!114 &-158760781565767863
MonoBehaviour:
  m_ObjectHideFlags: 11
  m_CorrespondingSourceObject: {fileID: 0}
  m_PrefabInstance: {fileID: 0}
  m_PrefabAsset: {fileID: 0}
  m_GameObject: {fileID: 0}
  m_Enabled: 1
  m_EditorHideFlags: 0
  m_Script: {fileID: 11500000, guid: d0353a89b1f911e48b9e16bdc9f2e058, type: 3}
  m_Name: 
  m_EditorClassIdentifier: 
  version: 7
--- !u!21 &2100000
Material:
  serializedVersion: 8
  m_ObjectHideFlags: 0
  m_CorrespondingSourceObject: {fileID: 0}
  m_PrefabInstance: {fileID: 0}
  m_PrefabAsset: {fileID: 0}
  m_Name: Shader Graphs_LSD-shader_BG
  m_Shader: {fileID: -6465566751694194690, guid: 60a2efdc70f3a1a409faa5542fc51672,
    type: 3}
  m_Parent: {fileID: 0}
  m_ModifiedSerializedProperties: 0
  m_ValidKeywords: []
  m_InvalidKeywords:
  - ETC1_EXTERNAL_ALPHA
  m_LightmapFlags: 4
  m_EnableInstancingVariants: 0
  m_DoubleSidedGI: 0
  m_CustomRenderQueue: -1
  stringTagMap: {}
  disabledShaderPasses: []
  m_LockedProperties: 
  m_SavedProperties:
    serializedVersion: 3
    m_TexEnvs:
    - Texture2D_3CD2F972:
        m_Texture: {fileID: 2800000, guid: d877e5f8359c73d4f94b4ad71254793d, type: 3}
        m_Scale: {x: 1, y: 1}
        m_Offset: {x: 0, y: 0}
    - Texture2D_76526567:
        m_Texture: {fileID: 2800000, guid: 03f7ecfa1fb66db41aade884f8d03821, type: 3}
        m_Scale: {x: 1, y: 1}
        m_Offset: {x: 0, y: 0}
    - Texture2D_B64A0B2D:
        m_Texture: {fileID: 2800000, guid: 2ebfbe3ed2677494da64228c53d28489, type: 3}
        m_Scale: {x: 1, y: 1}
        m_Offset: {x: 0, y: 0}
    - unity_Lightmaps:
        m_Texture: {fileID: 0}
        m_Scale: {x: 1, y: 1}
        m_Offset: {x: 0, y: 0}
    - unity_LightmapsInd:
        m_Texture: {fileID: 0}
        m_Scale: {x: 1, y: 1}
        m_Offset: {x: 0, y: 0}
    - unity_ShadowMasks:
        m_Texture: {fileID: 0}
        m_Scale: {x: 1, y: 1}
        m_Offset: {x: 0, y: 0}
    m_Ints: []
    m_Floats:
    - Vector1_9F761A67: 0.3
    - Vector1_BA38F52C: 0.59
    - Vector1_F5C7F025: 0.44
    - _QueueControl: 0
    - _QueueOffset: 0
    m_Colors:
    - Color_8A0B7A30: {r: 13.437201, g: 1.336685, b: 0.07035184, a: 1}
    - Vector2_B4E7094A: {r: 2.5, g: 2, b: 0, a: 0}
  m_BuildTextureStacks: []
