%YAML 1.1
%TAG !u! tag:unity3d.com,2011:
--- !u!74 &7400000
AnimationClip:
  m_ObjectHideFlags: 0
  m_CorrespondingSourceObject: {fileID: 0}
  m_PrefabInstance: {fileID: 0}
  m_PrefabAsset: {fileID: 0}
  m_Name: Flag
  serializedVersion: 6
  m_Legacy: 0
  m_Compressed: 0
  m_UseHighQualityCurve: 1
  m_RotationCurves: []
  m_CompressedRotationCurves: []
  m_EulerCurves: []
  m_PositionCurves: []
  m_ScaleCurves: []
  m_FloatCurves: []
  m_PPtrCurves:
  - curve:
    - time: 0
      value: {fileID: -2037105181612562561, guid: 6443dc79f0e2d364983424cfb0e02231,
        type: 3}
    - time: 0.06666667
      value: {fileID: -9157500828004108140, guid: 6443dc79f0e2d364983424cfb0e02231,
        type: 3}
    - time: 0.13333334
      value: {fileID: -1245514887107947280, guid: 6443dc79f0e2d364983424cfb0e02231,
        type: 3}
    - time: 0.2
      value: {fileID: 1410932935608857223, guid: 6443dc79f0e2d364983424cfb0e02231,
        type: 3}
    - time: 0.26666668
      value: {fileID: -7701278785897921065, guid: 6443dc79f0e2d364983424cfb0e02231,
        type: 3}
    - time: 0.33333334
      value: {fileID: -2657547195941737372, guid: 6443dc79f0e2d364983424cfb0e02231,
        type: 3}
    - time: 0.4
      value: {fileID: -1396079880695519717, guid: 6443dc79f0e2d364983424cfb0e02231,
        type: 3}
    - time: 0.46666667
      value: {fileID: -9126199673850238218, guid: 6443dc79f0e2d364983424cfb0e02231,
        type: 3}
    - time: 0.53333336
      value: {fileID: 7749333404301423885, guid: 6443dc79f0e2d364983424cfb0e02231,
        type: 3}
    attribute: m_Sprite
    path: 
    classID: 212
    script: {fileID: 0}
  m_SampleRate: 120
  m_WrapMode: 0
  m_Bounds:
    m_Center: {x: 0, y: 0, z: 0}
    m_Extent: {x: 0, y: 0, z: 0}
  m_ClipBindingConstant:
    genericBindings:
    - serializedVersion: 2
      path: 0
      attribute: 0
      script: {fileID: 0}
      typeID: 212
      customType: 23
      isPPtrCurve: 1
    pptrCurveMapping:
    - {fileID: -2037105181612562561, guid: 6443dc79f0e2d364983424cfb0e02231, type: 3}
    - {fileID: -9157500828004108140, guid: 6443dc79f0e2d364983424cfb0e02231, type: 3}
    - {fileID: -1245514887107947280, guid: 6443dc79f0e2d364983424cfb0e02231, type: 3}
    - {fileID: 1410932935608857223, guid: 6443dc79f0e2d364983424cfb0e02231, type: 3}
    - {fileID: -7701278785897921065, guid: 6443dc79f0e2d364983424cfb0e02231, type: 3}
    - {fileID: -2657547195941737372, guid: 6443dc79f0e2d364983424cfb0e02231, type: 3}
    - {fileID: -1396079880695519717, guid: 6443dc79f0e2d364983424cfb0e02231, type: 3}
    - {fileID: -9126199673850238218, guid: 6443dc79f0e2d364983424cfb0e02231, type: 3}
    - {fileID: 7749333404301423885, guid: 6443dc79f0e2d364983424cfb0e02231, type: 3}
  m_AnimationClipSettings:
    serializedVersion: 2
    m_AdditiveReferencePoseClip: {fileID: 0}
    m_AdditiveReferencePoseTime: 0
    m_StartTime: 0
    m_StopTime: 0.5416667
    m_OrientationOffsetY: 0
    m_Level: 0
    m_CycleOffset: 0
    m_HasAdditiveReferencePose: 0
    m_LoopTime: 1
    m_LoopBlend: 0
    m_LoopBlendOrientation: 0
    m_LoopBlendPositionY: 0
    m_LoopBlendPositionXZ: 0
    m_KeepOriginalOrientation: 0
    m_KeepOriginalPositionY: 1
    m_KeepOriginalPositionXZ: 0
    m_HeightFromFeet: 0
    m_Mirror: 0
  m_EditorCurves: []
  m_EulerEditorCurves: []
  m_HasGenericRootTransform: 0
  m_HasMotionFloatCurves: 0
  m_Events: []
